%YAML 1.1
%TAG !u! tag:unity3d.com,2011:
--- !u!1045 &1
EditorBuildSettings:
  m_ObjectHideFlags: 0
  serializedVersion: 2
  m_Scenes:
  - enabled: 1
    path: Assets/Scenes/MainMenu_EvilAlliance.unity
    guid: 11a8476ae6a7f9c499beea82c9b934e1
  - enabled: 1
    path: Assets/Scenes/OpeningStory.unity
    guid: 79166133108d9bb41a2fd18f4b86c726
  - enabled: 1
    path: Assets/Scenes/MainGame_EvilAlliance.unity
    guid: 178095680b32b614084fc53924459942
